<svg width="50" height="51" viewBox="0 0 50 51" fill="none" xmlns="http://www.w3.org/2000/svg">
<g clip-path="url(#clip0)">
<path d="M25 50.2606C38.8071 50.2606 50 39.0677 50 25.2606C50 11.4535 38.8071 0.26062 25 0.26062C11.1929 0.26062 0 11.4535 0 25.2606C0 39.0677 11.1929 50.2606 25 50.2606Z" fill="#333333"/>
<path d="M31.2849 26.2393H26.824V42.5821H20.0653V26.2393H16.8508V20.4958H20.0653V16.7791C20.0653 14.1212 21.3278 9.95929 26.8842 9.95929L31.8906 9.98023V15.5553H28.2581C27.6623 15.5553 26.8244 15.853 26.8244 17.1209V20.5011H31.8754L31.2849 26.2393Z" fill="white"/>
</g>
<defs>
<clipPath id="clip0">
<rect width="50" height="50" fill="white" transform="translate(0 0.26062)"/>
</clipPath>
</defs>
</svg>
