<svg width="41" height="40" viewBox="0 0 41 40" fill="none" xmlns="http://www.w3.org/2000/svg">
<g clip-path="url(#clip0)">
<path d="M20.998 -0.000488281C9.95404 -0.000488281 0.998047 8.95551 0.998047 19.9995C0.998047 31.0435 9.95404 39.9995 20.998 39.9995C32.0421 39.9995 40.998 31.0435 40.998 19.9995C40.998 8.95551 32.0421 -0.000488281 20.998 -0.000488281ZM15.1863 30.2339H10.3154V15.5797H15.1863V30.2339ZM12.751 13.5786H12.7192C11.0847 13.5786 10.0276 12.4534 10.0276 11.0472C10.0276 9.60919 11.1171 8.51514 12.7833 8.51514C14.4496 8.51514 15.475 9.60919 15.5067 11.0472C15.5067 12.4534 14.4496 13.5786 12.751 13.5786ZM32.7498 30.2339H27.8795V22.3942C27.8795 20.424 27.1742 19.0803 25.4118 19.0803C24.0663 19.0803 23.2649 19.9867 22.9127 20.8616C22.7839 21.1747 22.7525 21.6124 22.7525 22.0503V30.2339H17.8819C17.8819 30.2339 17.9457 16.9545 17.8819 15.5797H22.7525V17.6545C23.3998 16.656 24.5579 15.2357 27.1422 15.2357C30.3468 15.2357 32.7498 17.3301 32.7498 21.8312V30.2339Z" fill="#AEAEAE"/>
</g>
<defs>
<clipPath id="clip0">
<rect width="40" height="40" fill="white" transform="translate(0.998047 -0.000488281)"/>
</clipPath>
</defs>
</svg>
