<svg width="40" height="40" viewBox="0 0 40 40" fill="none" xmlns="http://www.w3.org/2000/svg">
<path fill-rule="evenodd" clip-rule="evenodd" d="M40 20C40 31.0457 31.0457 40 20 40C8.95432 40 0 31.0457 0 20C0 8.95431 8.95432 0 20 0C31.0457 0 40 8.95431 40 20ZM28.435 12.1317L9.15168 19.5667C7.83 20.0834 7.85334 20.815 8.92496 21.155L13.8617 22.695L25.3134 15.485C25.845 15.1317 26.3383 15.3317 25.935 15.6867L16.6683 24.0584L16.3134 29.1467C16.83 29.1467 17.055 28.9217 17.3217 28.655L19.7334 26.3317L24.7334 30.0167C25.645 30.5334 26.2966 30.2667 26.54 29.1701L29.8234 13.7017L29.8217 13.7033C30.1117 12.35 29.33 11.8084 28.435 12.1317Z" fill="#AEAEAE"/>
</svg>
